^D:\UNIVERSITY\NETPROGRAMMING\SYSTEMPROGRAMMING-MASTER\LAB01\TASK2\X64\DEBUG\TASK2.OBJ
D:\UNIVERSITY\NETPROGRAMMING\SYSTEMPROGRAMMING-MASTER\LAB01\TASK2\X64\DEBUG\TASK2.ILK
D:\UNIVERSITY\NETPROGRAMMING\SYSTEMPROGRAMMING-MASTER\LAB01\X64\DEBUG\TASK2.EXE
D:\UNIVERSITY\NETPROGRAMMING\SYSTEMPROGRAMMING-MASTER\LAB01\X64\DEBUG\TASK2.PDB
