^D:\UNIVERSITY\NETPROGRAMMING123\SYSTEMPROGRAMMING-MASTER\LAB01\LAB01\ARRAYGENERATOR.CPP
D:\UNIVERSITY\NETPROGRAMMING123\SYSTEMPROGRAMMING-MASTER\LAB01\LAB01\X64\DEBUG\VC143.PDB
D:\UNIVERSITY\NETPROGRAMMING123\SYSTEMPROGRAMMING-MASTER\LAB01\LAB01\X64\DEBUG\VC143.IDB
D:\UNIVERSITY\NETPROGRAMMING123\SYSTEMPROGRAMMING-MASTER\LAB01\LAB01\X64\DEBUG\ARRAYGENERATOR.OBJ
